27

-2
1
-9
4
-7
15
4
-10

-10
10
-2
8
-6
-6

7
8
-10
12
5
7

-2
-3
-10
8
-5
12
3
-7
2
6

13
-7
14
1
-5
-10
9

-7
-3
-3
-3
7
-1
-7
13
10
13
5
-9

1
11
1
-5
1
3
4
6
-1
7
-9
10

-6
10
-5
14
-1
-7
-5
-7

-3
-4
4
3
-2
7
-6
8
-1
14

-4
-8
-9
10
-10
-7
15
13
-2
3
9

8
1
7
-2
-8
11
15
-1

7
1
7
-4
1
12
2
-2
-2
13
12

-6
4
14
-10
-8
-1
13

-2
8
1
-7
1
10
-6
1
15

-5
-6
-8
-1
-4
6
8
15
-2
-9
6

-10
11
-7
8
-5
-9
-3
-10
7
5
5

-6
-5
-2
-2
2
-10

-7
-10
4
13
-5

-7
-10
10
-6
2
6
-3

-7
-6
-9
15
9
-2
15
9
3
-2
4
-2

-1
1
-3
15
-6
-6
-10
9
3
-7
15

-1
4
1
2
-10
-7
-10

10
-7
14
9
-7
-6
-6

14
2
14
8
6
2
3
9
13
15
4
9

5
8
6
2
-1
15
-1
9
9
-2

-3
5
11
4
-8
-5
2

1
2
4
-3
2
6
13
