29

6
4
9
-8
1
15
-6
4
-8
-8
-10
-4
-5
-2

3
1

4
-7
-7
12
7
-9
7
5

12
11
10
-1
-9
-7
-7
-8
4
3
-8
11
-6
7

-5
-10
13
14
11
-3
-1
14
-3
9
13
-3
-1
2
1

-7
-4
-3
-2
-3
-2
6
-1
-4

7
-7
-2
1

-10
13
7
-4
4
14
5
-7

10
-10
2
9
-3
6
8

-3
-4
10
2

12
8
8
11
-10
-8
-6
-4
14

-5
-6
14
5
6
14
8
-6
14
15
-2

14
10
1
11
3
3
3
-7
-3
-3
-5

4

-1
-6
7
-6
5
5

9
-6
11
-3
13
-5
-1
-1
2
8
-5
13
5
6
15

6
14
-8
-9
12
-7
5
11
-10
-3
-2
-10

6

4
7
7
-10
9
-5
1
5
-8
8
8
-9
3
-8

13
10
8
-5
-9
3
14
-5
-6
15
7
1
-1
-1

4
-8
12
12
-4
14
-10
-5
2
11
1
3
15

-2
-3
14
-5
-3
-9
-1
-1
3
13
-8
-8
-6

9
12
13
-2
-10
5
7
8

4
-6
-9
4
12

3
14
-8
5

-8
-10
1
2
5
-7
-10

-1

7
4
-4
2
2
-2
-5
-2

10
13
4
7
8
-8
-4
-7
