-16 32 -24 -72 -48 760
16 -32 -56 -48 808
-48 -40 -56 -80 736
-8 72 -32 -24 824
16 -8 -8 -16 -24 880
-72 24 -56 8 -64 728
-64 -32 -8 48 -48 -16 728
-40 -32 -56 -8 824
-16 -32 -48 -24 -64 768
-16 -72 888
-40 -64 -40 -32 -8 -16 -72 -8 -80 560
-16 8 -80 24 -72 -8 736
24 -48 -80 -64 744
-48 -56 872
-72 -8 -40 -64 776
-32 -16 -8 912
-48 -80 -24 -8 -56 736
-80 40 -48 48 -24 -32 672
-8 -8 8 -40 896
-64 -72 -32 56 -8 -8 704
-24 -24 -48 -32 -8 816
-64 -64 -40 -56 -40 -16 664
-64 920
-72 -40 -8 848
-56 -24 -24 -80 776
