40 -32 -24 872
-8 8 -24 928
-24 -16 936
-8 24 -16 -32 880
8 -24 -16 -32 -8 -8 -32 808
-32 -32 912
-32 -32 -16 -8 -16 -24 -8 800
-8 976
-8 976
-32 -32 -16 -24 -16 -24 -24 -16 744
-32 -16 -8 912
-8 8 -24 928
992
32 -8 -24 904
-8 976
-24 -16 936
-24 -24 -32 -16 -24 832
-24 -8 -32 -24 -24 -8 -16 800
-8 -32 -32 -16 -24 840
8 -8 -32 -32 -32 -32 -24 768
