-16 -88 -56 -120 -24 -80 -64 -56 -72 344
-32 32 -88 -88 -120 592
-40 -64 96 -32 -96 -48 -72 488
-120 -16 -80 -16 -80 -56 -72 -32 -112 -96 -48 176
-64 -8 -112 -8 -80 -48 -48 568
-72 -80 -8 24 -96 -64 -16 -72 -48 -88 344
-80 -72 -16 -120 -56 8 -32 552
-88 -64 -32 112 -72 -16 -88 -104 -88 256
-72 24 -64 -40 -120 -112 -8 -72 416
-80 -96 -56 -16 -56 -80 -104 -88 352
-80 -80 -64 -24 -48 48 -48 -64 472
-8 -16 -104 40 -80 -16 -88 -64 512
-120 -88 -64 -120 112 -16 -40 376
-96 -24 -48 -112 -72 -56 -88 -80 -24 320
-96 -56 -24 -80 -96 -88 -8 -8 472
-72 -104 40 -8 -72 -56 -72 -80 -48 368
-56 -56 -72 -40 -56 -120 -104 -96 -96 -24 192
-72 -80 -72 -88 -88 -24 -32 -112 360
-32 -80 -16 -64 -16 -112 -120 -32 -8 440
-120 -40 -16 16 -64 88 -64 528
-24 -48 -48 -80 -120 -32 -72 -48 -72 -88 280
-72 -72 -32 -112 -88 -32 -48 48 -24 392
-112 -88 -64 16 -48 -88 528
-24 16 -96 -32 -104 -96 -104 464
